{
  "count": 128,
  "next": "https://hub.docker.com/v2/repositories/openmmlab/lmdeploy/tags?page=2&page_size=25",
  "previous": null,
  "results": [
    {
      "creator": 12596485,
      "id": 466351820,
      "images": [
        {
          "architecture": "amd64",
          "features": "",
          "variant": null,
          "digest": "sha256:a3cee7ef7a7d3bf92d80a5ac1f782aca11f094e156d32d1146629f79f09734bc",
          "os": "linux",
          "os_features": "",
          "os_version": null,
          "size": 5528157952,
          "status": "active",
          "last_pulled": "2026-04-29T03:35:11.915897442Z",
          "last_pushed": "2026-04-08T04:58:53.015467496Z"
        }
      ],
      "last_updated": "2026-04-08T04:58:55.109828Z",
      "last_updater": 12596485,
      "last_updater_username": "openmmlab",
      "name": "latest",
      "repository": 20384839,
      "full_size": 5528157952,
      "v2": true,
      "tag_status": "active",
      "tag_last_pulled": "2026-04-29T03:35:11.915897442Z",
      "tag_last_pushed": "2026-04-08T04:58:55.109828Z",
      "media_type": "application/vnd.docker.container.image.v1+json",
      "content_type": "image",
      "digest": "sha256:a3cee7ef7a7d3bf92d80a5ac1f782aca11f094e156d32d1146629f79f09734bc"
    },
    {
      "creator": 12596485,
      "id": 1120128148,
      "images": [
        {
          "architecture": "amd64",
          "features": "",
          "variant": null,
          "digest": "sha256:9a55e74124f48ad6e3fce0137b0fb3dcc091b61de589b9f9fb176cb14ab707e6",
          "os": "linux",
          "os_features": "",
          "os_version": null,
          "size": 6228635947,
          "status": "active",
          "last_pulled": "2026-04-29T03:42:36.002536847Z",
          "last_pushed": "2026-04-28T09:39:24.572884053Z"
        }
      ],
      "last_updated": "2026-04-28T09:39:24.91337Z",
      "last_updater": 12596485,
      "last_updater_username": "openmmlab",
      "name": "nightly-test-cu12.8",
      "repository": 20384839,
      "full_size": 6228635947,
      "v2": true,
      "tag_status": "active",
      "tag_last_pulled": "2026-04-29T03:42:36.002536847Z",
      "tag_last_pushed": "2026-04-28T09:39:24.91337Z",
      "media_type": "application/vnd.docker.container.image.v1+json",
      "content_type": "image",
      "digest": "sha256:9a55e74124f48ad6e3fce0137b0fb3dcc091b61de589b9f9fb176cb14ab707e6"
    },
    {
      "creator": 12596485,
      "id": 1115100668,
      "images": [
        {
          "architecture": "amd64",
          "features": "",
          "variant": null,
          "digest": "sha256:ad24518b2209d78d4af44a7276c349bcf678c4fd1d9618d987907b1404c3b26c",
          "os": "linux",
          "os_features": "",
          "os_version": null,
          "size": 5518405796,
          "status": "active",
          "last_pulled": "2026-04-28T13:17:29.846130498Z",
          "last_pushed": "2026-04-28T09:37:30.210370626Z"
        }
      ],
      "last_updated": "2026-04-28T09:37:30.452717Z",
      "last_updater": 12596485,
      "last_updater_username": "openmmlab",
      "name": "nightly-cu12.8",
      "repository": 20384839,
      "full_size": 5518405796,
      "v2": true,
      "tag_status": "active",
      "tag_last_pulled": "2026-04-28T13:17:29.846130498Z",
      "tag_last_pushed": "2026-04-28T09:37:30.452717Z",
      "media_type": "application/vnd.docker.container.image.v1+json",
      "content_type": "image",
      "digest": "sha256:ad24518b2209d78d4af44a7276c349bcf678c4fd1d9618d987907b1404c3b26c"
    },
    {
      "creator": 12596485,
      "id": 1136078302,
      "images": [
        {
          "architecture": "arm64",
          "features": "",
          "variant": null,
          "digest": "sha256:d232ccc99ca9c7b1fec0ffefcc6d0fda202380ec4ef3b3be2d9e7ca2761ad4b2",
          "os": "linux",
          "os_features": "",
          "os_version": null,
          "size": 4714951731,
          "status": "active",
          "last_pulled": "2026-04-26T09:19:18.021597275Z",
          "last_pushed": "2026-04-20T03:13:24.470946176Z"
        }
      ],
      "last_updated": "2026-04-20T07:27:55.597325Z",
      "last_updater": 12596485,
      "last_updater_username": "openmmlab",
      "name": "v0.12.3-a3",
      "repository": 20384839,
      "full_size": 4714951731,
      "v2": true,
      "tag_status": "active",
      "tag_last_pulled": "2026-04-26T09:19:18.021597275Z",
      "tag_last_pushed": "2026-04-20T07:27:55.597325Z",
      "media_type": "application/vnd.docker.container.image.v1+json",
      "content_type": "image",
      "digest": "sha256:d232ccc99ca9c7b1fec0ffefcc6d0fda202380ec4ef3b3be2d9e7ca2761ad4b2"
    },
    {
      "creator": 12596485,
      "id": 1125745198,
      "images": [
        {
          "architecture": "amd64",
          "features": "",
          "variant": null,
          "digest": "sha256:2558bbdd1240dfeb4f85b707089330707e8bc52d90c4d259e3543eed6e98d2be",
          "os": "linux",
          "os_features": "",
          "os_version": null,
          "size": 5565629466,
          "status": "active",
          "last_pulled": "2026-04-27T16:26:01.992247941Z",
          "last_pushed": "2026-04-09T10:43:51.643968107Z"
        }
      ],
      "last_updated": "2026-04-09T10:43:51.942456Z",
      "last_updater": 12596485,
      "last_updater_username": "openmmlab",
      "name": "v0.12.3.post2-cu12.8",
      "repository": 20384839,
      "full_size": 5565629466,
      "v2": true,
      "tag_status": "active",
      "tag_last_pulled": "2026-04-27T16:26:01.992247941Z",
      "tag_last_pushed": "2026-04-09T10:43:51.942456Z",
      "media_type": "application/vnd.docker.container.image.v1+json",
      "content_type": "image",
      "digest": "sha256:2558bbdd1240dfeb4f85b707089330707e8bc52d90c4d259e3543eed6e98d2be"
    },
    {
      "creator": 12596485,
      "id": 1124211870,
      "images": [
        {
          "architecture": "amd64",
          "features": "",
          "variant": null,
          "digest": "sha256:a3cee7ef7a7d3bf92d80a5ac1f782aca11f094e156d32d1146629f79f09734bc",
          "os": "linux",
          "os_features": "",
          "os_version": null,
          "size": 5528157952,
          "status": "active",
          "last_pulled": "2026-04-29T03:35:11.915897442Z",
          "last_pushed": "2026-04-08T04:58:53.015467496Z"
        }
      ],
      "last_updated": "2026-04-08T04:58:56.768576Z",
      "last_updater": 12596485,
      "last_updater_username": "openmmlab",
      "name": "v0.12.3-cu12",
      "repository": 20384839,
      "full_size": 5528157952,
      "v2": true,
      "tag_status": "active",
      "tag_last_pulled": "2026-04-29T03:35:11.915897442Z",
      "tag_last_pushed": "2026-04-08T04:58:56.768576Z",
      "media_type": "application/vnd.docker.container.image.v1+json",
      "content_type": "image",
      "digest": "sha256:a3cee7ef7a7d3bf92d80a5ac1f782aca11f094e156d32d1146629f79f09734bc"
    },
    {
      "creator": 12596485,
      "id": 733500758,
      "images": [
        {
          "architecture": "amd64",
          "features": "",
          "variant": null,
          "digest": "sha256:a3cee7ef7a7d3bf92d80a5ac1f782aca11f094e156d32d1146629f79f09734bc",
          "os": "linux",
          "os_features": "",
          "os_version": null,
          "size": 5528157952,
          "status": "active",
          "last_pulled": "2026-04-29T03:35:11.915897442Z",
          "last_pushed": "2026-04-08T04:58:53.015467496Z"
        }
      ],
      "last_updated": "2026-04-08T04:58:53.376498Z",
      "last_updater": 12596485,
      "last_updater_username": "openmmlab",
      "name": "latest-cu12",
      "repository": 20384839,
      "full_size": 5528157952,
      "v2": true,
      "tag_status": "active",
      "tag_last_pulled": "2026-04-29T03:35:11.915897442Z",
      "tag_last_pushed": "2026-04-08T04:58:53.376498Z",
      "media_type": "application/vnd.docker.container.image.v1+json",
      "content_type": "image",
      "digest": "sha256:a3cee7ef7a7d3bf92d80a5ac1f782aca11f094e156d32d1146629f79f09734bc"
    },
    {
      "creator": 12596485,
      "id": 1124210276,
      "images": [
        {
          "architecture": "amd64",
          "features": "",
          "variant": null,
          "digest": "sha256:d80af509484cf79f3bd018facfe8db4160fe07bbe9946c828fdf9c94a80b4b7a",
          "os": "linux",
          "os_features": "",
          "os_version": null,
          "size": 5563355740,
          "status": "active",
          "last_pulled": "2026-04-28T00:37:57.716771332Z",
          "last_pushed": "2026-04-08T04:55:48.685011324Z"
        }
      ],
      "last_updated": "2026-04-08T04:55:51.018054Z",
      "last_updater": 12596485,
      "last_updater_username": "openmmlab",
      "name": "v0.12.3-cu12.8",
      "repository": 20384839,
      "full_size": 5563355740,
      "v2": true,
      "tag_status": "active",
      "tag_last_pulled": "2026-04-28T00:37:57.716771332Z",
      "tag_last_pushed": "2026-04-08T04:55:51.018054Z",
      "media_type": "application/vnd.docker.container.image.v1+json",
      "content_type": "image",
      "digest": "sha256:d80af509484cf79f3bd018facfe8db4160fe07bbe9946c828fdf9c94a80b4b7a"
    },
    {
      "creator": 12596485,
      "id": 961355230,
      "images": [
        {
          "architecture": "amd64",
          "features": "",
          "variant": null,
          "digest": "sha256:d80af509484cf79f3bd018facfe8db4160fe07bbe9946c828fdf9c94a80b4b7a",
          "os": "linux",
          "os_features": "",
          "os_version": null,
          "size": 5563355740,
          "status": "active",
          "last_pulled": "2026-04-28T00:37:57.716771332Z",
          "last_pushed": "2026-04-08T04:55:48.685011324Z"
        }
      ],
      "last_updated": "2026-04-08T04:55:49.018742Z",
      "last_updater": 12596485,
      "last_updater_username": "openmmlab",
      "name": "latest-cu12.8",
      "repository": 20384839,
      "full_size": 5563355740,
      "v2": true,
      "tag_status": "active",
      "tag_last_pulled": "2026-04-28T00:37:57.716771332Z",
      "tag_last_pushed": "2026-04-08T04:55:49.018742Z",
      "media_type": "application/vnd.docker.container.image.v1+json",
      "content_type": "image",
      "digest": "sha256:d80af509484cf79f3bd018facfe8db4160fe07bbe9946c828fdf9c94a80b4b7a"
    },
    {
      "creator": 12596485,
      "id": 969684597,
      "images": [
        {
          "architecture": "arm64",
          "features": "",
          "variant": null,
          "digest": "sha256:06d5ab721904463a998e0482bf345d87df072501888799b490687ef4e17475f3",
          "os": "linux",
          "os_features": "",
          "os_version": null,
          "size": 4671396542,
          "status": "active",
          "last_pulled": "2026-04-26T09:18:52.383916632Z",
          "last_pushed": "2026-04-08T04:53:46.447728053Z"
        }
      ],
      "last_updated": "2026-04-08T04:53:46.746178Z",
      "last_updater": 12596485,
      "last_updater_username": "openmmlab",
      "name": "ascend",
      "repository": 20384839,
      "full_size": 4671396542,
      "v2": true,
      "tag_status": "active",
      "tag_last_pulled": "2026-04-26T09:18:52.383916632Z",
      "tag_last_pushed": "2026-04-08T04:53:46.746178Z",
      "media_type": "application/vnd.docker.container.image.v1+json",
      "content_type": "image",
      "digest": "sha256:06d5ab721904463a998e0482bf345d87df072501888799b490687ef4e17475f3"
    },
    {
      "creator": 12596485,
      "id": 1104376432,
      "images": [
        {
          "architecture": "amd64",
          "features": "",
          "variant": null,
          "digest": "sha256:941e4506df3f077142ae1f3ca84aff0ecf7578831dc9d8e033d232e3c9ac5f73",
          "os": "linux",
          "os_features": "",
          "os_version": null,
          "size": 5398478597,
          "status": "active",
          "last_pulled": "2026-04-28T18:07:15.532132569Z",
          "last_pushed": "2026-03-18T04:47:56.631347712Z"
        }
      ],
      "last_updated": "2026-03-18T04:47:59.739437Z",
      "last_updater": 12596485,
      "last_updater_username": "openmmlab",
      "name": "v0.12.2-cu12.8",
      "repository": 20384839,
      "full_size": 5398478597,
      "v2": true,
      "tag_status": "active",
      "tag_last_pulled": "2026-04-28T18:07:15.532132569Z",
      "tag_last_pushed": "2026-03-18T04:47:59.739437Z",
      "media_type": "application/vnd.docker.container.image.v1+json",
      "content_type": "image",
      "digest": "sha256:941e4506df3f077142ae1f3ca84aff0ecf7578831dc9d8e033d232e3c9ac5f73"
    },
    {
      "creator": 12596485,
      "id": 1104367617,
      "images": [
        {
          "architecture": "amd64",
          "features": "",
          "variant": null,
          "digest": "sha256:6b55613f8e15fe5bbfd931fc8dfb3ff9b5fb0bbe0d65f8397b2bc74a83ad5048",
          "os": "linux",
          "os_features": "",
          "os_version": null,
          "size": 5366049072,
          "status": "active",
          "last_pulled": "2026-04-28T20:17:15.246914506Z",
          "last_pushed": "2026-03-18T04:30:27.781494658Z"
        }
      ],
      "last_updated": "2026-03-18T04:30:31.986245Z",
      "last_updater": 12596485,
      "last_updater_username": "openmmlab",
      "name": "v0.12.2-cu12",
      "repository": 20384839,
      "full_size": 5366049072,
      "v2": true,
      "tag_status": "active",
      "tag_last_pulled": "2026-04-28T20:17:15.246914506Z",
      "tag_last_pushed": "2026-03-18T04:30:31.986245Z",
      "media_type": "application/vnd.docker.container.image.v1+json",
      "content_type": "image",
      "digest": "sha256:6b55613f8e15fe5bbfd931fc8dfb3ff9b5fb0bbe0d65f8397b2bc74a83ad5048"
    },
    {
      "creator": 12596485,
      "id": 1001927812,
      "images": [
        {
          "architecture": "amd64",
          "features": "",
          "variant": null,
          "digest": "sha256:32d0a808c93d7f41339b5f05fe8b216050c6439494a035fe6913a47edbb9730a",
          "os": "linux",
          "os_features": "",
          "os_version": null,
          "size": 11985366806,
          "status": "active",
          "last_pulled": "2026-04-28T16:13:17.319004312Z",
          "last_pushed": "2026-03-16T14:02:18.829539438Z"
        }
      ],
      "last_updated": "2026-03-16T14:02:19.263052Z",
      "last_updater": 12596485,
      "last_updater_username": "openmmlab",
      "name": "dev-cu12.8",
      "repository": 20384839,
      "full_size": 11985366806,
      "v2": true,
      "tag_status": "active",
      "tag_last_pulled": "2026-04-28T16:13:17.319004312Z",
      "tag_last_pushed": "2026-03-16T14:02:19.263052Z",
      "media_type": "application/vnd.docker.container.image.v1+json",
      "content_type": "image",
      "digest": "sha256:32d0a808c93d7f41339b5f05fe8b216050c6439494a035fe6913a47edbb9730a"
    },
    {
      "creator": 12596485,
      "id": 961331648,
      "images": [
        {
          "architecture": "amd64",
          "features": "",
          "variant": null,
          "digest": "sha256:fde1e009ba9c47dc1ca60e8c282ad4bf7c0b2f5ebb27bba8bc8cada838abc21d",
          "os": "linux",
          "os_features": "",
          "os_version": null,
          "size": 4192259791,
          "status": "active",
          "last_pulled": "2026-04-26T09:18:50.883230336Z",
          "last_pushed": "2026-03-10T02:56:54.382270228Z"
        }
      ],
      "last_updated": "2026-03-10T02:56:54.745923Z",
      "last_updater": 12596485,
      "last_updater_username": "openmmlab",
      "name": "dev",
      "repository": 20384839,
      "full_size": 4192259791,
      "v2": true,
      "tag_status": "active",
      "tag_last_pulled": "2026-04-26T09:18:50.883230336Z",
      "tag_last_pushed": "2026-03-10T02:56:54.745923Z",
      "media_type": "application/vnd.docker.container.image.v1+json",
      "content_type": "image",
      "digest": "sha256:fde1e009ba9c47dc1ca60e8c282ad4bf7c0b2f5ebb27bba8bc8cada838abc21d"
    },
    {
      "creator": 12596485,
      "id": 1075099368,
      "images": [
        {
          "architecture": "amd64",
          "features": "",
          "variant": null,
          "digest": "sha256:acf193e20843a3d5efd93fe738cb76ab80ea2136345dc13bdb92b582c5408552",
          "os": "linux",
          "os_features": "",
          "os_version": null,
          "size": 5024735529,
          "status": "active",
          "last_pulled": "2026-04-28T00:54:21.440210839Z",
          "last_pushed": "2026-02-14T03:41:28.99249156Z"
        }
      ],
      "last_updated": "2026-02-14T03:41:29.219604Z",
      "last_updater": 12596485,
      "last_updater_username": "openmmlab",
      "name": "v0.12.1-cu12.8",
      "repository": 20384839,
      "full_size": 5024735529,
      "v2": true,
      "tag_status": "active",
      "tag_last_pulled": "2026-04-28T00:54:21.440210839Z",
      "tag_last_pushed": "2026-02-14T03:41:29.219604Z",
      "media_type": "application/vnd.docker.container.image.v1+json",
      "content_type": "image",
      "digest": "sha256:acf193e20843a3d5efd93fe738cb76ab80ea2136345dc13bdb92b582c5408552"
    },
    {
      "creator": 12596485,
      "id": 1074407339,
      "images": [
        {
          "architecture": "amd64",
          "features": "",
          "variant": null,
          "digest": "sha256:35ccdac7c680a283fde7d48b5ff3dcf909923c9d03dbea414d38acf0496df242",
          "os": "linux",
          "os_features": "",
          "os_version": null,
          "size": 5024655335,
          "status": "active",
          "last_pulled": "2026-04-29T01:04:42.397708683Z",
          "last_pushed": "2026-02-13T10:26:38.902069508Z"
        },
        {
          "architecture": "unknown",
          "features": "",
          "variant": null,
          "digest": "sha256:084fd6c721f19ee31abae1b342bb9fdd9931d00cc783294e3986ba98daa5686c",
          "os": "unknown",
          "os_features": "",
          "os_version": null,
          "size": 1366,
          "status": "active",
          "last_pulled": "2026-04-29T01:04:42.399496839Z",
          "last_pushed": "2026-02-13T10:26:38.94809409Z"
        }
      ],
      "last_updated": "2026-02-13T10:26:42.768213Z",
      "last_updater": 12596485,
      "last_updater_username": "openmmlab",
      "name": "v0.12.1-cu12",
      "repository": 20384839,
      "full_size": 5024655335,
      "v2": true,
      "tag_status": "active",
      "tag_last_pulled": "2026-04-29T01:04:42.399496839Z",
      "tag_last_pushed": "2026-02-13T10:26:42.768213Z",
      "media_type": "application/vnd.oci.image.index.v1+json",
      "content_type": "image",
      "digest": "sha256:c898497d95dd6d86da1cf3e12fb1fc9164f22ef2a17f3be94988a929f7b7d76e"
    },
    {
      "creator": 12596485,
      "id": 1072234848,
      "images": [
        {
          "architecture": "amd64",
          "features": "",
          "variant": null,
          "digest": "sha256:e4b22c4bd343d7d99a7e8736a00cbb018dc74e9b46ab1ab199cbbcd16f2442a0",
          "os": "linux",
          "os_features": "",
          "os_version": null,
          "size": 5523787447,
          "status": "active",
          "last_pulled": "2026-04-26T09:18:50.239439426Z",
          "last_pushed": "2026-02-11T09:58:43.73529441Z"
        }
      ],
      "last_updated": "2026-02-11T09:58:44.036454Z",
      "last_updater": 12596485,
      "last_updater_username": "openmmlab",
      "name": "bump_version-cu12.8",
      "repository": 20384839,
      "full_size": 5523787447,
      "v2": true,
      "tag_status": "active",
      "tag_last_pulled": "2026-04-26T09:18:50.239439426Z",
      "tag_last_pushed": "2026-02-11T09:58:44.036454Z",
      "media_type": "application/vnd.docker.container.image.v1+json",
      "content_type": "image",
      "digest": "sha256:e4b22c4bd343d7d99a7e8736a00cbb018dc74e9b46ab1ab199cbbcd16f2442a0"
    },
    {
      "creator": 12596485,
      "id": 1072230715,
      "images": [
        {
          "architecture": "arm64",
          "features": "",
          "variant": null,
          "digest": "sha256:c7ea4bbfed86b790fdd6f796e7b426166cbe0de40b25eb94fbb191281d4dc5d2",
          "os": "linux",
          "os_features": "",
          "os_version": null,
          "size": 4590231523,
          "status": "active",
          "last_pulled": "2026-04-28T23:48:46.703269056Z",
          "last_pushed": "2026-02-11T09:53:34.639185977Z"
        }
      ],
      "last_updated": "2026-02-11T09:53:34.883291Z",
      "last_updater": 12596485,
      "last_updater_username": "openmmlab",
      "name": "bump_version-ascend",
      "repository": 20384839,
      "full_size": 4590231523,
      "v2": true,
      "tag_status": "active",
      "tag_last_pulled": "2026-04-28T23:48:46.703269056Z",
      "tag_last_pushed": "2026-02-11T09:53:34.883291Z",
      "media_type": "application/vnd.docker.container.image.v1+json",
      "content_type": "image",
      "digest": "sha256:c7ea4bbfed86b790fdd6f796e7b426166cbe0de40b25eb94fbb191281d4dc5d2"
    },
    {
      "creator": 12596485,
      "id": 1072225963,
      "images": [
        {
          "architecture": "amd64",
          "features": "",
          "variant": null,
          "digest": "sha256:aa088a7f15348517cd7db2651466e3d3a17ef84794d9a155464932de37effa24",
          "os": "linux",
          "os_features": "",
          "os_version": null,
          "size": 5024640808,
          "status": "active",
          "last_pulled": "2026-04-25T21:31:33.449043496Z",
          "last_pushed": "2026-02-11T09:48:59.803207776Z"
        }
      ],
      "last_updated": "2026-02-11T09:49:00.08682Z",
      "last_updater": 12596485,
      "last_updater_username": "openmmlab",
      "name": "bump_version-cu12",
      "repository": 20384839,
      "full_size": 5024640808,
      "v2": true,
      "tag_status": "active",
      "tag_last_pulled": "2026-04-25T21:31:33.449043496Z",
      "tag_last_pushed": "2026-02-11T09:49:00.08682Z",
      "media_type": "application/vnd.docker.container.image.v1+json",
      "content_type": "image",
      "digest": "sha256:aa088a7f15348517cd7db2651466e3d3a17ef84794d9a155464932de37effa24"
    },
    {
      "creator": 12596485,
      "id": 1072192736,
      "images": [
        {
          "architecture": "amd64",
          "features": "",
          "variant": null,
          "digest": "sha256:042c68332ff76ddb5dde2745d66b2460c918df9d82c66c7d930d3d7f5d0ee254",
          "os": "linux",
          "os_features": "",
          "os_version": null,
          "size": 4239702402,
          "status": "active",
          "last_pulled": "2026-04-26T09:18:49.212352286Z",
          "last_pushed": "2026-02-11T09:11:28.307993555Z"
        }
      ],
      "last_updated": "2026-02-11T09:11:28.867501Z",
      "last_updater": 12596485,
      "last_updater_username": "openmmlab",
      "name": "bump_version-dev",
      "repository": 20384839,
      "full_size": 4239702402,
      "v2": true,
      "tag_status": "active",
      "tag_last_pulled": "2026-04-26T09:18:49.212352286Z",
      "tag_last_pushed": "2026-02-11T09:11:28.867501Z",
      "media_type": "application/vnd.docker.container.image.v1+json",
      "content_type": "image",
      "digest": "sha256:042c68332ff76ddb5dde2745d66b2460c918df9d82c66c7d930d3d7f5d0ee254"
    },
    {
      "creator": 12596485,
      "id": 1065966642,
      "images": [
        {
          "architecture": "amd64",
          "features": "",
          "variant": null,
          "digest": "sha256:08dab156d6031cbc4e5f2cba41008d15a1ff7c6fc4728e3bbaff6938fea19fb3",
          "os": "linux",
          "os_features": "",
          "os_version": null,
          "size": 5082248777,
          "status": "active",
          "last_pulled": "2026-04-28T19:34:35.566532435Z",
          "last_pushed": "2026-02-04T07:45:54.727556872Z"
        }
      ],
      "last_updated": "2026-02-04T07:45:56.735578Z",
      "last_updater": 12596485,
      "last_updater_username": "openmmlab",
      "name": "v0.12.0-cu12.8",
      "repository": 20384839,
      "full_size": 5082248777,
      "v2": true,
      "tag_status": "active",
      "tag_last_pulled": "2026-04-28T19:34:35.566532435Z",
      "tag_last_pushed": "2026-02-04T07:45:56.735578Z",
      "media_type": "application/vnd.docker.container.image.v1+json",
      "content_type": "image",
      "digest": "sha256:08dab156d6031cbc4e5f2cba41008d15a1ff7c6fc4728e3bbaff6938fea19fb3"
    },
    {
      "creator": 12596485,
      "id": 1065961197,
      "images": [
        {
          "architecture": "amd64",
          "features": "",
          "variant": null,
          "digest": "sha256:713d97a8229478d7ecd1322d69431b07050781c9d09cd3c8d07a98798dd5c8cf",
          "os": "linux",
          "os_features": "",
          "os_version": null,
          "size": 5024505970,
          "status": "active",
          "last_pulled": "2026-04-26T09:18:47.505868744Z",
          "last_pushed": "2026-02-04T07:37:28.287706794Z"
        }
      ],
      "last_updated": "2026-02-04T07:37:34.38676Z",
      "last_updater": 12596485,
      "last_updater_username": "openmmlab",
      "name": "v0.12.0-cu12",
      "repository": 20384839,
      "full_size": 5024505970,
      "v2": true,
      "tag_status": "active",
      "tag_last_pulled": "2026-04-26T09:18:47.505868744Z",
      "tag_last_pushed": "2026-02-04T07:37:34.38676Z",
      "media_type": "application/vnd.docker.container.image.v1+json",
      "content_type": "image",
      "digest": "sha256:713d97a8229478d7ecd1322d69431b07050781c9d09cd3c8d07a98798dd5c8cf"
    },
    {
      "creator": 12596485,
      "id": 1043913570,
      "images": [
        {
          "architecture": "arm64",
          "features": "",
          "variant": null,
          "digest": "sha256:f94dc96a5b1c07e4c961a9a085a25bee654713524240af158a42c944b44555fd",
          "os": "linux",
          "os_features": "",
          "os_version": null,
          "size": 5534448293,
          "status": "active",
          "last_pulled": "2026-04-28T16:56:39.605961531Z",
          "last_pushed": "2026-01-07T14:30:38.789362586Z"
        }
      ],
      "last_updated": "2026-01-07T14:30:39.12731Z",
      "last_updater": 12596485,
      "last_updater_username": "openmmlab",
      "name": "v0.11.1-a3",
      "repository": 20384839,
      "full_size": 5534448293,
      "v2": true,
      "tag_status": "active",
      "tag_last_pulled": "2026-04-28T16:56:39.605961531Z",
      "tag_last_pushed": "2026-01-07T14:30:39.12731Z",
      "media_type": "application/vnd.docker.container.image.v1+json",
      "content_type": "image",
      "digest": "sha256:f94dc96a5b1c07e4c961a9a085a25bee654713524240af158a42c944b44555fd"
    },
    {
      "creator": 12596485,
      "id": 1037589577,
      "images": [
        {
          "architecture": "amd64",
          "features": "",
          "variant": null,
          "digest": "sha256:457d9b84ab0fc5044a43552f5cd7dbfdb3b402420dbdaf66ea8ab55fda37e309",
          "os": "linux",
          "os_features": "",
          "os_version": null,
          "size": 5742080808,
          "status": "active",
          "last_pulled": "2026-04-29T02:07:20.872555704Z",
          "last_pushed": "2025-12-24T14:47:54.292182581Z"
        }
      ],
      "last_updated": "2025-12-24T14:47:57.667424Z",
      "last_updater": 12596485,
      "last_updater_username": "openmmlab",
      "name": "v0.11.1-cu11",
      "repository": 20384839,
      "full_size": 5742080808,
      "v2": true,
      "tag_status": "active",
      "tag_last_pulled": "2026-04-29T02:07:20.872555704Z",
      "tag_last_pushed": "2025-12-24T14:47:57.667424Z",
      "media_type": "application/vnd.docker.container.image.v1+json",
      "content_type": "image",
      "digest": "sha256:457d9b84ab0fc5044a43552f5cd7dbfdb3b402420dbdaf66ea8ab55fda37e309"
    },
    {
      "creator": 12596485,
      "id": 733500745,
      "images": [
        {
          "architecture": "amd64",
          "features": "",
          "variant": null,
          "digest": "sha256:457d9b84ab0fc5044a43552f5cd7dbfdb3b402420dbdaf66ea8ab55fda37e309",
          "os": "linux",
          "os_features": "",
          "os_version": null,
          "size": 5742080808,
          "status": "active",
          "last_pulled": "2026-04-29T02:07:20.872555704Z",
          "last_pushed": "2025-12-24T14:47:54.292182581Z"
        }
      ],
      "last_updated": "2025-12-24T14:47:54.773316Z",
      "last_updater": 12596485,
      "last_updater_username": "openmmlab",
      "name": "latest-cu11",
      "repository": 20384839,
      "full_size": 5742080808,
      "v2": true,
      "tag_status": "active",
      "tag_last_pulled": "2026-04-29T02:07:20.872555704Z",
      "tag_last_pushed": "2025-12-24T14:47:54.773316Z",
      "media_type": "application/vnd.docker.container.image.v1+json",
      "content_type": "image",
      "digest": "sha256:457d9b84ab0fc5044a43552f5cd7dbfdb3b402420dbdaf66ea8ab55fda37e309"
    }
  ]
}
